{
  "page": 1,
  "total_results": 10000,
  "total_pages": 500,
  "results": [
    {
      "popularity": 272.59,
      "vote_count": 392,
      "video": false,
      "poster_path": "\\/s8qRIwA0zDPbnRekeU0rDwWE7q7.jpg",
      "id": 454626,
      "adult": false,
      "backdrop_path": "\\/qonBhlm0UjuKX2sH7e73pnG0454.jpg",
      "original_language": "en",
      "original_title": "Sonic the Hedgehog",
      "genre_ids": [
        28,
        35,
        878,
        10751
      ],
      "title": "Sonic the Hedgehog",
      "vote_average": 7.1,
      "overview": "Based on the global blockbuster videogame franchise from Sega, Sonic the Hedgehog tells the story of the world’s speediest hedgehog as he embraces his new home on Earth. In this live-action adventure comedy, Sonic and his new best friend team up to defend the planet from the evil genius Dr. Robotnik and his plans for world domination.",
      "release_date": "2020-02-14"
    },
    {
      "popularity": 238.92,
      "vote_count": 4395,
      "video": false,
      "poster_path": "\\/7IiTTgloJzvGI1TAYymCfbfl3vT.jpg",
      "id": 496243,
      "adult": false,
      "backdrop_path": "\\/TU9NIjwzjoKPwQHoHshkFcQUCG.jpg",
      "original_language": "ko",
      "original_title": "기생충",
      "genre_ids": [
        35,
        18,
        53
      ],
      "title": "Parasite",
      "vote_average": 8.6,
      "overview": "All unemployed, Ki-taek's family takes peculiar interest in the wealthy and glamorous Parks for their livelihood until they get entangled in an unexpected incident.",
      "release_date": "2019-10-11"
    },
    {
      "popularity": 214.938,
      "vote_count": 1960,
      "video": false,
      "poster_path": "\\/49HMMZPVJcnUwe2QmVzBfxyLAY2.jpg",
      "id": 258216,
      "adult": false,
      "backdrop_path": "\\/t9MElpSTsqNBttwntdevOgQuJDe.jpg",
      "original_language": "en",
      "original_title": "Nymphomaniac: Vol. I",
      "genre_ids": [
        18
      ],
      "title": "Nymphomaniac: Vol. I",
      "vote_average": 6.9,
      "overview": "A man named Seligman finds a fainted wounded woman in an alley and he brings her home. She tells him that her name is Joe and that she is nymphomaniac. Joe tells her life and sexual experiences with hundreds of men since she was a young teenager while Seligman tells about his hobbies, such as fly fishing, reading about Fibonacci numbers or listening to organ music.",
      "release_date": "2014-03-06"
    },
    {
      "popularity": 160.136,
      "vote_count": 2427,
      "video": false,
      "poster_path": "\\/xBHvZcjRiWyobQ9kxBhO6B2dtRI.jpg",
      "id": 419704,
      "adult": false,
      "backdrop_path": "\\/5BwqwxMEjeFtdknRV792Svo0K1v.jpg",
      "original_language": "en",
      "original_title": "Ad Astra",
      "genre_ids": [
        12,
        18,
        9648,
        878,
        53
      ],
      "title": "Ad Astra",
      "vote_average": 6,
      "overview": "The near future, a time when both hope and hardships drive humanity to look to the stars and beyond. While a mysterious phenomenon menaces to destroy life on planet Earth, astronaut Roy McBride undertakes a mission across the immensity of space and its many perils to uncover the truth about a lost expedition that decades before boldly faced emptiness and silence in search of the unknown.",
      "release_date": "2019-09-20"
    },
    {
      "popularity": 160.411,
      "vote_count": 793,
      "video": false,
      "poster_path": "\\/h4VB6m0RwcicVEZvzftYZyKXs6K.jpg",
      "id": 495764,
      "adult": false,
      "backdrop_path": "\\/uozb2VeD87YmhoUP1RrGWfzuCrr.jpg",
      "original_language": "en",
      "original_title": "Birds of Prey (and the Fantabulous Emancipation of One Harley Quinn)",
      "genre_ids": [
        28,
        35,
        80
      ],
      "title": "Birds of Prey (and the Fantabulous Emancipation of One Harley Quinn)",
      "vote_average": 6.8,
      "overview": "After her breakup with the Joker, Harley Quinn joins forces with singer Black Canary, assassin Huntress, and police detective Renee Montoya to help a young girl named Cassandra, who had a hit placed on her after she stole a rare diamond from crime lord Roman Sionis.",
      "release_date": "2020-02-07"
    },
    {
      "popularity": 129.147,
      "vote_count": 2294,
      "video": false,
      "poster_path": "\\/pThyQovXQrw2m0s9x82twj48Jq4.jpg",
      "id": 546554,
      "adult": false,
      "backdrop_path": "\\/cjTQSwcsfVdirSFSHNBXRGkxmWa.jpg",
      "original_language": "en",
      "original_title": "Knives Out",
      "genre_ids": [
        35,
        80,
        18,
        9648,
        53
      ],
      "title": "Knives Out",
      "vote_average": 7.8,
      "overview": "When renowned crime novelist Harlan Thrombey is found dead at his estate just after his 85th birthday, the inquisitive and debonair Detective Benoit Blanc is mysteriously enlisted to investigate. From Harlan's dysfunctional family to his devoted staff, Blanc sifts through a web of red herrings and self-serving lies to uncover the truth behind Harlan's untimely death.",
      "release_date": "2019-11-27"
    },
    {
      "popularity": 125.845,
      "vote_count": 2440,
      "video": false,
      "poster_path": "\\/h6Wi81XNXCjTAcdstiCLRykN3Pa.jpg",
      "id": 330457,
      "adult": false,
      "backdrop_path": "\\/xJWPZIYOEFIjZpBL7SVBGnzRYXp.jpg",
      "original_language": "en",
      "original_title": "Frozen II",
      "genre_ids": [
        12,
        16,
        10751
      ],
      "title": "Frozen II",
      "vote_average": 7,
      "overview": "Elsa, Anna, Kristoff and Olaf head far into the forest to learn the truth about an ancient mystery of their kingdom.",
      "release_date": "2019-11-22"
    },
    {
      "popularity": 131.835,
      "vote_count": 52,
      "video": false,
      "poster_path": "\\/33VdppGbeNxICrFUtW2WpGHvfYc.jpg",
      "id": 481848,
      "adult": false,
      "backdrop_path": "\\/yFRpUmsreYO5Bc0HVBTsJsHIIox.jpg",
      "original_language": "en",
      "original_title": "The Call of the Wild",
      "genre_ids": [
        12,
        18,
        10751
      ],
      "title": "The Call of the Wild",
      "vote_average": 6.3,
      "overview": "A sled dog struggles for survival in the wilds of the Yukon.",
      "release_date": "2020-02-21"
    },
    {
      "popularity": 104.181,
      "vote_count": 1628,
      "video": false,
      "poster_path": "\\/jyw8VKYEiM1UDzPB7NsisUgBeJ8.jpg",
      "id": 512200,
      "adult": false,
      "backdrop_path": "\\/zTxHf9iIOCqRbxvl8W5QYKrsMLq.jpg",
      "original_language": "en",
      "original_title": "Jumanji: The Next Level",
      "genre_ids": [
        28,
        12,
        35,
        14
      ],
      "title": "Jumanji: The Next Level",
      "vote_average": 6.7,
      "overview": "As the gang return to Jumanji to rescue one of their own, they discover that nothing is as they expect. The players will have to brave parts unknown and unexplored in order to escape the world’s most dangerous game.",
      "release_date": "2019-12-13"
    },
    {
      "popularity": 115.379,
      "vote_count": 9326,
      "video": false,
      "poster_path": "\\/udDclJoHjfjb8Ekgsd4FDteOkCU.jpg",
      "id": 475557,
      "adult": false,
      "backdrop_path": "\\/n6bUvigpRFqSwmPp1m2YADdbRBc.jpg",
      "original_language": "en",
      "original_title": "Joker",
      "genre_ids": [
        80,
        18,
        53
      ],
      "title": "Joker",
      "vote_average": 8.3,
      "overview": "During the 1980s, a failed stand-up comedian is driven insane and turns to a life of crime and chaos in Gotham City while becoming an infamous psychopathic crime figure.",
      "release_date": "2019-10-04"
    },
    {
      "popularity": 88.67,
      "vote_count": 1515,
      "video": false,
      "poster_path": "\\/vqzNJRH4YyquRiWxCCOH0aXggHI.jpg",
      "id": 290859,
      "adult": false,
      "backdrop_path": "\\/riTANvQ8GKmQbgtC1ps3OfkU43A.jpg",
      "original_language": "en",
      "original_title": "Terminator: Dark Fate",
      "genre_ids": [
        28,
        878
      ],
      "title": "Terminator: Dark Fate",
      "vote_average": 6.2,
      "overview": "Decades after Sarah Connor prevented Judgment Day, a lethal new Terminator is sent to eliminate the future leader of the resistance. In a fight to save mankind, battle-hardened Sarah Connor teams up with an unexpected ally and an enhanced super soldier to stop the deadliest Terminator yet.",
      "release_date": "2019-11-01"
    },
    {
      "popularity": 88.261,
      "vote_count": 2801,
      "video": false,
      "poster_path": "\\/AuGiPiGMYMkSosOJ3BQjDEAiwtO.jpg",
      "id": 530915,
      "adult": false,
      "backdrop_path": "\\/cqa3sa4c4jevgnEJwq3CMF8UfTG.jpg",
      "original_language": "en",
      "original_title": "1917",
      "genre_ids": [
        28,
        18,
        10752
      ],
      "title": "1917",
      "vote_average": 8,
      "overview": "At the height of the First World War, two young British soldiers must cross enemy territory and deliver a message that will stop a deadly attack on hundreds of soldiers.",
      "release_date": "2019-12-10"
    },
    {
      "popularity": 76.481,
      "vote_count": 1640,
      "video": false,
      "poster_path": "\\/6ApDtO7xaWAfPqfi2IARXIzj8QS.jpg",
      "id": 359724,
      "adult": false,
      "backdrop_path": "\\/n3UanIvmnBlH531pykuzNs4LbH6.jpg",
      "original_language": "en",
      "original_title": "Ford v Ferrari",
      "genre_ids": [
        28,
        18
      ],
      "title": "Ford v Ferrari",
      "vote_average": 7.8,
      "overview": "American car designer Carroll Shelby and the British-born driver Ken Miles work together to battle corporate interference, the laws of physics, and their own personal demons to build a revolutionary race car for Ford Motor Company and take on the dominating race cars of Enzo Ferrari at the 24 Hours of Le Mans in France in 1966.",
      "release_date": "2019-11-15"
    },
    {
      "popularity": 81.77,
      "vote_count": 120,
      "video": false,
      "poster_path": "\\/hJ6YEbrjFvToa5c7IiUqILoB6Je.jpg",
      "id": 552178,
      "adult": false,
      "backdrop_path": "\\/4ZSlTfkHtgTTupCaLbseXQQzZha.jpg",
      "original_language": "en",
      "original_title": "Dark Waters",
      "genre_ids": [
        18
      ],
      "title": "Dark Waters",
      "vote_average": 7.4,
      "overview": "A tenacious attorney uncovers a dark secret that connects a growing number of unexplained deaths due to one of the world's largest corporations. In the process, he risks everything — his future, his family, and his own life — to expose the truth.",
      "release_date": "2019-11-22"
    },
    {
      "popularity": 84.014,
      "vote_count": 8732,
      "video": false,
      "poster_path": "\\/jpfkzbIXgKZqCZAkEkFH2VYF63s.jpg",
      "id": 920,
      "adult": false,
      "backdrop_path": "\\/a1MlbLBk5Sy6YvMbSuKfwGlDVlb.jpg",
      "original_language": "en",
      "original_title": "Cars",
      "genre_ids": [
        12,
        16,
        35,
        10751
      ],
      "title": "Cars",
      "vote_average": 6.7,
      "overview": "Lightning McQueen, a hotshot rookie race car driven to succeed, discovers that life is about the journey, not the finish line, when he finds himself unexpectedly detoured in the sleepy Route 66 town of Radiator Springs. On route across the country to the big Piston Cup Championship in California to compete against two seasoned pros, McQueen gets to know the town's offbeat characters.",
      "release_date": "2006-06-09"
    },
    {
      "popularity": 78.957,
      "vote_count": 363,
      "video": false,
      "poster_path": "\\/hj8pyoNnynGeJTAbl7jcLZO8Uhx.jpg",
      "id": 522162,
      "adult": false,
      "backdrop_path": "\\/xjP88DFPCQ81mbZHXFscyYtGskT.jpg",
      "original_language": "en",
      "original_title": "Midway",
      "genre_ids": [
        28,
        18,
        36,
        10752
      ],
      "title": "Midway",
      "vote_average": 6.7,
      "overview": "The story of the Battle of Midway, and the leaders and soldiers who used their instincts, fortitude and bravery to overcome massive odds.",
      "release_date": "2019-11-08"
    },
    {
      "popularity": 92.914,
      "vote_count": 915,
      "video": false,
      "poster_path": "\\/y95lQLnuNKdPAzw9F9Ab8kJ80c3.jpg",
      "id": 38700,
      "adult": false,
      "backdrop_path": "\\/upUy2QhMZEmtypPW3PdieKLAHxh.jpg",
      "original_language": "en",
      "original_title": "Bad Boys for Life",
      "genre_ids": [
        28,
        80,
        53
      ],
      "title": "Bad Boys for Life",
      "vote_average": 6.4,
      "overview": "Marcus and Mike are forced to confront new threats, career changes, and midlife crises as they join the newly created elite team AMMO of the Miami police department to take down the ruthless Armando Armas, the vicious leader of a Miami drug cartel.",
      "release_date": "2020-01-17"
    },
    {
      "popularity": 90.18,
      "vote_count": 456,
      "video": false,
      "poster_path": "\\/5eNiYMu2GXCtNlDwMcJqKGVwyoX.jpg",
      "id": 448119,
      "adult": false,
      "backdrop_path": "\\/lG802rseTZcN9mtLsQPVfApEVzM.jpg",
      "original_language": "en",
      "original_title": "Dolittle",
      "genre_ids": [
        12,
        35,
        14,
        10751
      ],
      "title": "Dolittle",
      "vote_average": 6.4,
      "overview": "After losing his wife seven years earlier, the eccentric Dr. John Dolittle, famed doctor and veterinarian of Queen Victoria’s England, hermits himself away behind the high walls of Dolittle Manor with only his menagerie of exotic animals for company. But when the young queen falls gravely ill, a reluctant Dolittle is forced to set sail on an epic adventure to a mythical island in search of a cure, regaining his wit and courage as he crosses old adversaries and discovers wondrous creatures.",
      "release_date": "2020-01-17"
    },
    {
      "popularity": 61.463,
      "vote_count": 5459,
      "video": false,
      "poster_path": "\\/hKHZhUbIyUAjcSrqJThFGYIR6kI.jpg",
      "id": 466282,
      "adult": false,
      "backdrop_path": "\\/uZTtVdOEIwPA6vwVRI3217DoPM.jpg",
      "original_language": "en",
      "original_title": "To All the Boys I've Loved Before",
      "genre_ids": [
        35,
        10749
      ],
      "title": "To All the Boys I've Loved Before",
      "vote_average": 7.8,
      "overview": "Lara Jean's love life goes from imaginary to out of control when her secret letters to every boy she's ever fallen for are mysteriously mailed out.",
      "release_date": "2018-08-16"
    },
    {
      "popularity": 84.139,
      "id": 505225,
      "video": false,
      "vote_count": 38,
      "vote_average": 4.9,
      "title": "The Last Thing He Wanted",
      "release_date": "2020-01-27",
      "original_language": "en",
      "original_title": "The Last Thing He Wanted",
      "genre_ids": [
        18,
        53
      ],
      "backdrop_path": "\\/lsgYcIbcoQeDZXsHYMOnkvk3sn0.jpg",
      "adult": false,
      "overview": "At the turning point of the Iran-Contra affair, Elena McMahon, a fearless investigative journalist covering the 1984 US presidential campaign, puts herself in danger when she abandons her assigned task in order to fulfill the last wish of her ailing father, a mysterious man whose past activities she barely knows…",
      "poster_path": "\\/i2FKQBcTbLUKGWgMRzt8nACJTIv.jpg"
    }
  ]
}